{
	"credit": "Made with Blockbench",
	"texture_size": [64, 64],
	"textures": {
		"0": "hardisbase:item/inner_core",
		"1": "hardisbase:item/bisquit",
		"particle": "hardisbase:item/inner_core"
	},
	"elements": [
		{
			"from": [5, 2, 1],
			"to": [11, 3, 5],
			"rotation": {"angle": 0, "axis": "y", "origin": [0, 0, 0]},
			"faces": {
				"north": {"uv": [5, 4.75, 6.5, 5], "texture": "#1"},
				"east": {"uv": [2.25, 6.25, 3.25, 6.5], "texture": "#1"},
				"south": {"uv": [4, 5.75, 5.5, 6], "texture": "#1"},
				"west": {"uv": [3.25, 6.25, 4.25, 6.5], "texture": "#1"},
				"up": {"uv": [1.5, 4.5, 0, 3.5], "texture": "#1"},
				"down": {"uv": [5, 0, 3.5, 1], "texture": "#1"}
			}
		},
		{
			"from": [11, 2, 5],
			"to": [15, 3, 11],
			"rotation": {"angle": 0, "axis": "y", "origin": [0, 0, 0]},
			"faces": {
				"north": {"uv": [4.25, 6.25, 5.25, 6.5], "texture": "#1"},
				"east": {"uv": [5.5, 5.75, 7, 6], "texture": "#1"},
				"south": {"uv": [5.25, 6.25, 6.25, 6.5], "texture": "#1"},
				"west": {"uv": [5.75, 1.75, 7.25, 2], "texture": "#1"},
				"up": {"uv": [5, 5.5, 4, 4], "texture": "#1"},
				"down": {"uv": [5, 1, 4, 2.5], "texture": "#1"}
			}
		},
		{
			"from": [1, 2, 5],
			"to": [5, 3, 11],
			"rotation": {"angle": 0, "axis": "y", "origin": [0, 0, 0]},
			"faces": {
				"north": {"uv": [6.25, 6.25, 7.25, 6.5], "texture": "#1"},
				"east": {"uv": [5.75, 2, 7.25, 2.25], "texture": "#1"},
				"south": {"uv": [0, 6.5, 1, 6.75], "texture": "#1"},
				"west": {"uv": [5.75, 2.25, 7.25, 2.5], "texture": "#1"},
				"up": {"uv": [5, 4, 4, 2.5], "texture": "#1"},
				"down": {"uv": [1, 4.5, 0, 6], "texture": "#1"}
			}
		},
		{
			"from": [2, 2, 3],
			"to": [5, 3, 5],
			"rotation": {"angle": 0, "axis": "y", "origin": [0, 0, 0]},
			"faces": {
				"north": {"uv": [6.5, 1, 7.25, 1.25], "texture": "#1"},
				"east": {"uv": [6.75, 6, 7.25, 6.25], "texture": "#1"},
				"south": {"uv": [6.5, 1.25, 7.25, 1.5], "texture": "#1"},
				"west": {"uv": [6.75, 6.5, 7.25, 6.75], "texture": "#1"},
				"up": {"uv": [6.5, 3, 5.75, 2.5], "texture": "#1"},
				"down": {"uv": [6.5, 3, 5.75, 3.5], "texture": "#1"}
			}
		},
		{
			"from": [3, 2, 2],
			"to": [5, 3, 3],
			"rotation": {"angle": 0, "axis": "y", "origin": [0, 0, 0]},
			"faces": {
				"north": {"uv": [0, 7, 0.5, 7.25], "texture": "#1"},
				"east": {"uv": [1.25, 7.25, 1.5, 7.5], "texture": "#1"},
				"south": {"uv": [0.5, 7, 1, 7.25], "texture": "#1"},
				"west": {"uv": [1.5, 7.25, 1.75, 7.5], "texture": "#1"},
				"up": {"uv": [1.5, 7.25, 1, 7], "texture": "#1"},
				"down": {"uv": [2, 7, 1.5, 7.25], "texture": "#1"}
			}
		},
		{
			"from": [3, 2, 13],
			"to": [5, 3, 14],
			"rotation": {"angle": 0, "axis": "y", "origin": [0, 0, 0]},
			"faces": {
				"north": {"uv": [2, 7, 2.5, 7.25], "texture": "#1"},
				"east": {"uv": [1.75, 7.25, 2, 7.5], "texture": "#1"},
				"south": {"uv": [2.5, 7, 3, 7.25], "texture": "#1"},
				"west": {"uv": [2, 7.25, 2.25, 7.5], "texture": "#1"},
				"up": {"uv": [3.5, 7.25, 3, 7], "texture": "#1"},
				"down": {"uv": [4, 7, 3.5, 7.25], "texture": "#1"}
			}
		},
		{
			"from": [2, 2, 11],
			"to": [5, 3, 13],
			"rotation": {"angle": 0, "axis": "y", "origin": [0, 0, 0]},
			"faces": {
				"north": {"uv": [6.5, 1.5, 7.25, 1.75], "texture": "#1"},
				"east": {"uv": [4, 7, 4.5, 7.25], "texture": "#1"},
				"south": {"uv": [6.5, 2.5, 7.25, 2.75], "texture": "#1"},
				"west": {"uv": [4.5, 7, 5, 7.25], "texture": "#1"},
				"up": {"uv": [6.5, 4, 5.75, 3.5], "texture": "#1"},
				"down": {"uv": [6.5, 4, 5.75, 4.5], "texture": "#1"}
			}
		},
		{
			"from": [11, 2, 13],
			"to": [13, 3, 14],
			"rotation": {"angle": 0, "axis": "y", "origin": [0, 0, 0]},
			"faces": {
				"north": {"uv": [5, 7, 5.5, 7.25], "texture": "#1"},
				"east": {"uv": [2.25, 7.25, 2.5, 7.5], "texture": "#1"},
				"south": {"uv": [5.5, 7, 6, 7.25], "texture": "#1"},
				"west": {"uv": [2.5, 7.25, 2.75, 7.5], "texture": "#1"},
				"up": {"uv": [6.5, 7.25, 6, 7], "texture": "#1"},
				"down": {"uv": [7, 7, 6.5, 7.25], "texture": "#1"}
			}
		},
		{
			"from": [11, 2, 11],
			"to": [14, 3, 13],
			"rotation": {"angle": 0, "axis": "y", "origin": [0, 0, 0]},
			"faces": {
				"north": {"uv": [6.5, 2.75, 7.25, 3], "texture": "#1"},
				"east": {"uv": [7, 7, 7.5, 7.25], "texture": "#1"},
				"south": {"uv": [6.5, 3, 7.25, 3.25], "texture": "#1"},
				"west": {"uv": [7, 3.75, 7.5, 4], "texture": "#1"},
				"up": {"uv": [6.5, 5.75, 5.75, 5.25], "texture": "#1"},
				"down": {"uv": [0.75, 6, 0, 6.5], "texture": "#1"}
			}
		},
		{
			"from": [11, 2, 2],
			"to": [13, 3, 3],
			"rotation": {"angle": 0, "axis": "y", "origin": [0, 0, 0]},
			"faces": {
				"north": {"uv": [7, 4, 7.5, 4.25], "texture": "#1"},
				"east": {"uv": [2.75, 7.25, 3, 7.5], "texture": "#1"},
				"south": {"uv": [7, 4.25, 7.5, 4.5], "texture": "#1"},
				"west": {"uv": [3, 7.25, 3.25, 7.5], "texture": "#1"},
				"up": {"uv": [7.5, 5, 7, 4.75], "texture": "#1"},
				"down": {"uv": [7.5, 5.25, 7, 5.5], "texture": "#1"}
			}
		},
		{
			"from": [11, 2, 3],
			"to": [14, 3, 5],
			"rotation": {"angle": 0, "axis": "y", "origin": [0, 0, 0]},
			"faces": {
				"north": {"uv": [6.5, 3.25, 7.25, 3.5], "texture": "#1"},
				"east": {"uv": [7, 5.5, 7.5, 5.75], "texture": "#1"},
				"south": {"uv": [6.5, 3.5, 7.25, 3.75], "texture": "#1"},
				"west": {"uv": [7, 5.75, 7.5, 6], "texture": "#1"},
				"up": {"uv": [1.5, 6.5, 0.75, 6], "texture": "#1"},
				"down": {"uv": [2.25, 6, 1.5, 6.5], "texture": "#1"}
			}
		},
		{
			"from": [5, 2, 11],
			"to": [11, 3, 15],
			"rotation": {"angle": 0, "axis": "y", "origin": [0, 0, 0]},
			"faces": {
				"north": {"uv": [5.75, 4.5, 7.25, 4.75], "texture": "#1"},
				"east": {"uv": [1, 6.5, 2, 6.75], "texture": "#1"},
				"south": {"uv": [2.25, 6, 3.75, 6.25], "texture": "#1"},
				"west": {"uv": [2, 6.5, 3, 6.75], "texture": "#1"},
				"up": {"uv": [2.5, 6, 1, 5], "texture": "#1"},
				"down": {"uv": [4, 5, 2.5, 6], "texture": "#1"}
			}
		},
		{
			"from": [5, 2, 10],
			"to": [6, 3, 11],
			"rotation": {"angle": 0, "axis": "y", "origin": [0, 0, 0]},
			"faces": {
				"north": {"uv": [3.25, 7.25, 3.5, 7.5], "texture": "#1"},
				"east": {"uv": [3.5, 7.25, 3.75, 7.5], "texture": "#1"},
				"south": {"uv": [3.75, 7.25, 4, 7.5], "texture": "#1"},
				"west": {"uv": [4, 7.25, 4.25, 7.5], "texture": "#1"},
				"up": {"uv": [4.5, 7.5, 4.25, 7.25], "texture": "#1"},
				"down": {"uv": [4.75, 7.25, 4.5, 7.5], "texture": "#1"}
			}
		},
		{
			"from": [5, 2, 5],
			"to": [6, 3, 6],
			"rotation": {"angle": 0, "axis": "y", "origin": [0, 0, 0]},
			"faces": {
				"north": {"uv": [4.75, 7.25, 5, 7.5], "texture": "#1"},
				"east": {"uv": [5, 7.25, 5.25, 7.5], "texture": "#1"},
				"south": {"uv": [5.25, 7.25, 5.5, 7.5], "texture": "#1"},
				"west": {"uv": [5.5, 7.25, 5.75, 7.5], "texture": "#1"},
				"up": {"uv": [6, 7.5, 5.75, 7.25], "texture": "#1"},
				"down": {"uv": [6.25, 7.25, 6, 7.5], "texture": "#1"}
			}
		},
		{
			"from": [10, 2, 5],
			"to": [11, 3, 6],
			"rotation": {"angle": 0, "axis": "y", "origin": [0, 0, 0]},
			"faces": {
				"north": {"uv": [6.25, 7.25, 6.5, 7.5], "texture": "#1"},
				"east": {"uv": [6.5, 7.25, 6.75, 7.5], "texture": "#1"},
				"south": {"uv": [6.75, 7.25, 7, 7.5], "texture": "#1"},
				"west": {"uv": [7, 7.25, 7.25, 7.5], "texture": "#1"},
				"up": {"uv": [7.5, 7.5, 7.25, 7.25], "texture": "#1"},
				"down": {"uv": [7.5, 0.25, 7.25, 0.5], "texture": "#1"}
			}
		},
		{
			"from": [10, 2, 10],
			"to": [11, 3, 11],
			"rotation": {"angle": 0, "axis": "y", "origin": [0, 0, 0]},
			"faces": {
				"north": {"uv": [7.25, 0.5, 7.5, 0.75], "texture": "#1"},
				"east": {"uv": [7.25, 0.75, 7.5, 1], "texture": "#1"},
				"south": {"uv": [7.25, 1, 7.5, 1.25], "texture": "#1"},
				"west": {"uv": [7.25, 1.25, 7.5, 1.5], "texture": "#1"},
				"up": {"uv": [7.5, 1.75, 7.25, 1.5], "texture": "#1"},
				"down": {"uv": [7.5, 1.75, 7.25, 2], "texture": "#1"}
			}
		},
		{
			"from": [6, 1, 2],
			"to": [10, 2, 14],
			"rotation": {"angle": 0, "axis": "y", "origin": [0, 0, 0]},
			"faces": {
				"north": {"uv": [2, 2, 5, 5], "texture": "#0"},
				"east": {"uv": [2, 2, 5, 5], "texture": "#0"},
				"south": {"uv": [2, 2, 5, 5], "texture": "#0"},
				"west": {"uv": [2, 2, 5, 5], "texture": "#0"},
				"up": {"uv": [2, 2, 5, 5], "texture": "#0"},
				"down": {"uv": [2, 2, 5, 5], "texture": "#0"}
			}
		},
		{
			"from": [10, 1, 6],
			"to": [14, 2, 10],
			"rotation": {"angle": 0, "axis": "y", "origin": [0, 0, 0]},
			"faces": {
				"north": {"uv": [2, 2, 5, 5], "texture": "#0"},
				"east": {"uv": [2, 2, 5, 5], "texture": "#0"},
				"south": {"uv": [2, 2, 5, 5], "texture": "#0"},
				"west": {"uv": [2, 2, 5, 5], "texture": "#0"},
				"up": {"uv": [2, 2, 5, 5], "texture": "#0"},
				"down": {"uv": [2, 2, 5, 5], "texture": "#0"}
			}
		},
		{
			"from": [2, 1, 6],
			"to": [6, 2, 10],
			"rotation": {"angle": 0, "axis": "y", "origin": [0, 0, 0]},
			"faces": {
				"north": {"uv": [2, 2, 5, 5], "texture": "#0"},
				"east": {"uv": [2, 2, 5, 5], "texture": "#0"},
				"south": {"uv": [2, 2, 5, 5], "texture": "#0"},
				"west": {"uv": [2, 2, 5, 5], "texture": "#0"},
				"up": {"uv": [2, 2, 5, 5], "texture": "#0"},
				"down": {"uv": [2, 2, 5, 5], "texture": "#0"}
			}
		},
		{
			"from": [4, 1, 3],
			"to": [6, 2, 6],
			"rotation": {"angle": 0, "axis": "y", "origin": [0, 0, 0]},
			"faces": {
				"north": {"uv": [2, 2, 5, 5], "texture": "#0"},
				"east": {"uv": [2, 2, 5, 5], "texture": "#0"},
				"south": {"uv": [2, 2, 5, 5], "texture": "#0"},
				"west": {"uv": [2, 2, 5, 5], "texture": "#0"},
				"up": {"uv": [2, 2, 5, 5], "texture": "#0"},
				"down": {"uv": [2, 2, 5, 5], "texture": "#0"}
			}
		},
		{
			"from": [4, 1, 10],
			"to": [6, 2, 13],
			"rotation": {"angle": 0, "axis": "y", "origin": [0, 0, 0]},
			"faces": {
				"north": {"uv": [2, 2, 5, 5], "texture": "#0"},
				"east": {"uv": [2, 2, 5, 5], "texture": "#0"},
				"south": {"uv": [2, 2, 5, 5], "texture": "#0"},
				"west": {"uv": [2, 2, 5, 5], "texture": "#0"},
				"up": {"uv": [2, 2, 5, 5], "texture": "#0"},
				"down": {"uv": [2, 2, 5, 5], "texture": "#0"}
			}
		},
		{
			"from": [10, 1, 10],
			"to": [12, 2, 13],
			"rotation": {"angle": 0, "axis": "y", "origin": [0, 0, 0]},
			"faces": {
				"north": {"uv": [2, 2, 5, 5], "texture": "#0"},
				"east": {"uv": [2, 2, 5, 5], "texture": "#0"},
				"south": {"uv": [2, 2, 5, 5], "texture": "#0"},
				"west": {"uv": [2, 2, 5, 5], "texture": "#0"},
				"up": {"uv": [2, 2, 5, 5], "texture": "#0"},
				"down": {"uv": [2, 2, 5, 5], "texture": "#0"}
			}
		},
		{
			"from": [10, 1, 3],
			"to": [12, 2, 6],
			"rotation": {"angle": 0, "axis": "y", "origin": [0, 0, 0]},
			"faces": {
				"north": {"uv": [2, 2, 5, 5], "texture": "#0"},
				"east": {"uv": [2, 2, 5, 5], "texture": "#0"},
				"south": {"uv": [2, 2, 5, 5], "texture": "#0"},
				"west": {"uv": [2, 2, 5, 5], "texture": "#0"},
				"up": {"uv": [2, 2, 5, 5], "texture": "#0"},
				"down": {"uv": [2, 2, 5, 5], "texture": "#0"}
			}
		},
		{
			"from": [12, 1, 4],
			"to": [13, 2, 6],
			"rotation": {"angle": 0, "axis": "y", "origin": [0, 0, 0]},
			"faces": {
				"north": {"uv": [2, 2, 5, 5], "texture": "#0"},
				"east": {"uv": [2, 2, 5, 5], "texture": "#0"},
				"south": {"uv": [2, 2, 5, 5], "texture": "#0"},
				"west": {"uv": [2, 2, 5, 5], "texture": "#0"},
				"up": {"uv": [2, 2, 5, 5], "texture": "#0"},
				"down": {"uv": [2, 2, 5, 5], "texture": "#0"}
			}
		},
		{
			"from": [12, 1, 10],
			"to": [13, 2, 12],
			"rotation": {"angle": 0, "axis": "y", "origin": [0, 0, 0]},
			"faces": {
				"north": {"uv": [2, 2, 5, 5], "texture": "#0"},
				"east": {"uv": [2, 2, 5, 5], "texture": "#0"},
				"south": {"uv": [2, 2, 5, 5], "texture": "#0"},
				"west": {"uv": [2, 2, 5, 5], "texture": "#0"},
				"up": {"uv": [2, 2, 5, 5], "texture": "#0"},
				"down": {"uv": [2, 2, 5, 5], "texture": "#0"}
			}
		},
		{
			"from": [3, 1, 10],
			"to": [4, 2, 12],
			"rotation": {"angle": 0, "axis": "y", "origin": [0, 0, 0]},
			"faces": {
				"north": {"uv": [2, 2, 5, 5], "texture": "#0"},
				"east": {"uv": [2, 2, 5, 5], "texture": "#0"},
				"south": {"uv": [2, 2, 5, 5], "texture": "#0"},
				"west": {"uv": [2, 2, 5, 5], "texture": "#0"},
				"up": {"uv": [2, 2, 5, 5], "texture": "#0"},
				"down": {"uv": [2, 2, 5, 5], "texture": "#0"}
			}
		},
		{
			"from": [3, 1, 4],
			"to": [4, 2, 6],
			"rotation": {"angle": 0, "axis": "y", "origin": [0, 0, 0]},
			"faces": {
				"north": {"uv": [2, 2, 5, 5], "texture": "#0"},
				"east": {"uv": [2, 2, 5, 5], "texture": "#0"},
				"south": {"uv": [2, 2, 5, 5], "texture": "#0"},
				"west": {"uv": [2, 2, 5, 5], "texture": "#0"},
				"up": {"uv": [2, 2, 5, 5], "texture": "#0"},
				"down": {"uv": [2, 2, 5, 5], "texture": "#0"}
			}
		},
		{
			"from": [11, 0, 5],
			"to": [15, 1, 11],
			"rotation": {"angle": 0, "axis": "y", "origin": [0, 16, 0]},
			"faces": {
				"north": {"uv": [4.25, 6.5, 5.25, 6.25], "texture": "#1"},
				"east": {"uv": [5.5, 6, 7, 5.75], "texture": "#1"},
				"south": {"uv": [5.25, 6.5, 6.25, 6.25], "texture": "#1"},
				"west": {"uv": [5.75, 2, 7.25, 1.75], "texture": "#1"},
				"up": {"uv": [5, 2.5, 4, 1], "texture": "#1"},
				"down": {"uv": [5, 4, 4, 5.5], "texture": "#1"}
			}
		},
		{
			"from": [1, 0, 5],
			"to": [5, 1, 11],
			"rotation": {"angle": 0, "axis": "y", "origin": [0, 16, 0]},
			"faces": {
				"north": {"uv": [6.25, 6.5, 7.25, 6.25], "texture": "#1"},
				"east": {"uv": [5.75, 2.25, 7.25, 2], "texture": "#1"},
				"south": {"uv": [0, 6.75, 1, 6.5], "texture": "#1"},
				"west": {"uv": [5.75, 2.5, 7.25, 2.25], "texture": "#1"},
				"up": {"uv": [1, 6, 0, 4.5], "texture": "#1"},
				"down": {"uv": [5, 2.5, 4, 4], "texture": "#1"}
			}
		},
		{
			"from": [2, 0, 3],
			"to": [5, 1, 5],
			"rotation": {"angle": 0, "axis": "y", "origin": [0, 16, 0]},
			"faces": {
				"north": {"uv": [6.5, 1.25, 7.25, 1], "texture": "#1"},
				"east": {"uv": [6.75, 6.25, 7.25, 6], "texture": "#1"},
				"south": {"uv": [6.5, 1.5, 7.25, 1.25], "texture": "#1"},
				"west": {"uv": [6.75, 6.75, 7.25, 6.5], "texture": "#1"},
				"up": {"uv": [6.5, 3.5, 5.75, 3], "texture": "#1"},
				"down": {"uv": [6.5, 2.5, 5.75, 3], "texture": "#1"}
			}
		},
		{
			"from": [3, 0, 2],
			"to": [5, 1, 3],
			"rotation": {"angle": 0, "axis": "y", "origin": [0, 16, 0]},
			"faces": {
				"north": {"uv": [0, 7.25, 0.5, 7], "texture": "#1"},
				"east": {"uv": [1.25, 7.5, 1.5, 7.25], "texture": "#1"},
				"south": {"uv": [0.5, 7.25, 1, 7], "texture": "#1"},
				"west": {"uv": [1.5, 7.5, 1.75, 7.25], "texture": "#1"},
				"up": {"uv": [2, 7.25, 1.5, 7], "texture": "#1"},
				"down": {"uv": [1.5, 7, 1, 7.25], "texture": "#1"}
			}
		},
		{
			"from": [3, 0, 13],
			"to": [5, 1, 14],
			"rotation": {"angle": 0, "axis": "y", "origin": [0, 16, 0]},
			"faces": {
				"north": {"uv": [2, 7.25, 2.5, 7], "texture": "#1"},
				"east": {"uv": [1.75, 7.5, 2, 7.25], "texture": "#1"},
				"south": {"uv": [2.5, 7.25, 3, 7], "texture": "#1"},
				"west": {"uv": [2, 7.5, 2.25, 7.25], "texture": "#1"},
				"up": {"uv": [4, 7.25, 3.5, 7], "texture": "#1"},
				"down": {"uv": [3.5, 7, 3, 7.25], "texture": "#1"}
			}
		},
		{
			"from": [2, 0, 11],
			"to": [5, 1, 13],
			"rotation": {"angle": 0, "axis": "y", "origin": [0, 16, 0]},
			"faces": {
				"north": {"uv": [6.5, 1.75, 7.25, 1.5], "texture": "#1"},
				"east": {"uv": [4, 7.25, 4.5, 7], "texture": "#1"},
				"south": {"uv": [6.5, 2.75, 7.25, 2.5], "texture": "#1"},
				"west": {"uv": [4.5, 7.25, 5, 7], "texture": "#1"},
				"up": {"uv": [6.5, 4.5, 5.75, 4], "texture": "#1"},
				"down": {"uv": [6.5, 3.5, 5.75, 4], "texture": "#1"}
			}
		},
		{
			"from": [11, 0, 13],
			"to": [13, 1, 14],
			"rotation": {"angle": 0, "axis": "y", "origin": [0, 16, 0]},
			"faces": {
				"north": {"uv": [5, 7.25, 5.5, 7], "texture": "#1"},
				"east": {"uv": [2.25, 7.5, 2.5, 7.25], "texture": "#1"},
				"south": {"uv": [5.5, 7.25, 6, 7], "texture": "#1"},
				"west": {"uv": [2.5, 7.5, 2.75, 7.25], "texture": "#1"},
				"up": {"uv": [7, 7.25, 6.5, 7], "texture": "#1"},
				"down": {"uv": [6.5, 7, 6, 7.25], "texture": "#1"}
			}
		},
		{
			"from": [11, 0, 11],
			"to": [14, 1, 13],
			"rotation": {"angle": 0, "axis": "y", "origin": [0, 16, 0]},
			"faces": {
				"north": {"uv": [6.5, 3, 7.25, 2.75], "texture": "#1"},
				"east": {"uv": [7, 7.25, 7.5, 7], "texture": "#1"},
				"south": {"uv": [6.5, 3.25, 7.25, 3], "texture": "#1"},
				"west": {"uv": [7, 4, 7.5, 3.75], "texture": "#1"},
				"up": {"uv": [0.75, 6.5, 0, 6], "texture": "#1"},
				"down": {"uv": [6.5, 5.25, 5.75, 5.75], "texture": "#1"}
			}
		},
		{
			"from": [11, 0, 2],
			"to": [13, 1, 3],
			"rotation": {"angle": 0, "axis": "y", "origin": [0, 16, 0]},
			"faces": {
				"north": {"uv": [7, 4.25, 7.5, 4], "texture": "#1"},
				"east": {"uv": [2.75, 7.5, 3, 7.25], "texture": "#1"},
				"south": {"uv": [7, 4.5, 7.5, 4.25], "texture": "#1"},
				"west": {"uv": [3, 7.5, 3.25, 7.25], "texture": "#1"},
				"up": {"uv": [7.5, 5.5, 7, 5.25], "texture": "#1"},
				"down": {"uv": [7.5, 4.75, 7, 5], "texture": "#1"}
			}
		},
		{
			"from": [11, 0, 3],
			"to": [14, 1, 5],
			"rotation": {"angle": 0, "axis": "y", "origin": [0, 16, 0]},
			"faces": {
				"north": {"uv": [6.5, 3.5, 7.25, 3.25], "texture": "#1"},
				"east": {"uv": [7, 5.75, 7.5, 5.5], "texture": "#1"},
				"south": {"uv": [6.5, 3.75, 7.25, 3.5], "texture": "#1"},
				"west": {"uv": [7, 6, 7.5, 5.75], "texture": "#1"},
				"up": {"uv": [2.25, 6.5, 1.5, 6], "texture": "#1"},
				"down": {"uv": [1.5, 6, 0.75, 6.5], "texture": "#1"}
			}
		},
		{
			"from": [5, 0, 1],
			"to": [11, 1, 15],
			"rotation": {"angle": 0, "axis": "y", "origin": [0, 16, 0]},
			"faces": {
				"north": {"uv": [5.75, 4.75, 7.25, 4.5], "texture": "#1"},
				"east": {"uv": [1, 6.75, 2, 6.5], "texture": "#1"},
				"south": {"uv": [2.25, 6.25, 3.75, 6], "texture": "#1"},
				"west": {"uv": [2, 6.75, 3, 6.5], "texture": "#1"},
				"up": {"uv": [4, 6, 2.5, 5], "texture": "#1"},
				"down": {"uv": [5.25, 2, 3.75, 5.5], "texture": "#1"}
			}
		}
	],
	"gui_light": "front",
	"display": {
		"thirdperson_righthand": {
			"rotation": [75, 45, 0],
			"translation": [0, 2.5, 2.5],
			"scale": [0.375, 0.375, 0.375]
		},
		"thirdperson_lefthand": {
			"rotation": [75, 45, 0],
			"translation": [0, 2.5, 2.5],
			"scale": [0.375, 0.375, 0.375]
		},
		"firstperson_righthand": {
			"rotation": [0, 45, 0],
			"scale": [0.4, 0.4, 0.4]
		},
		"firstperson_lefthand": {
			"rotation": [0, 225, 0],
			"scale": [0.4, 0.4, 0.4]
		},
		"ground": {
			"translation": [0, 3, 0],
			"scale": [0.25, 0.25, 0.25]
		},
		"gui": {
			"rotation": [30, 225, 0],
			"translation": [0, 9, 0],
			"scale": [1.5, 1.5, 1.5]
		},
		"head": {
			"rotation": [0, 180, 0],
			"translation": [0, 13, 0]
		},
		"fixed": {
			"rotation": [-90, 0, 0],
			"translation": [0, 0, -3.75],
			"scale": [0.5, 0.5, 0.5]
		}
	},
	"groups": [
		{
			"name": "Bisquit",
			"origin": [0, 0, 0],
			"children": [0, 1, 2, 3, 4, 5, 6, 7, 8, 9, 10, 11, 12, 13, 14, 15]
		},
		{
			"name": "Jam",
			"origin": [8, 8, 8],
			"children": [16, 17, 18, 19, 20, 21, 22, 23, 24, 25, 26]
		},
		{
			"name": "Bisquit",
			"origin": [0, 0, 0],
			"children": [27, 28, 29, 30, 31, 32, 33, 34, 35, 36, 37]
		}
	]
}